{
  "urn" : "local:stefano.balbi:im.ml.examples:ndwi_2015",
  "version" : "0.0.1",
  "adapterType" : "wcs",
  "localPath" : "im.ml.examples/resources/ndwi_2015.v0.0.1",
  "geometry" : "S2(11414,7153){bbox=[250020.0 592470.0 4048620.0 4263240.0],proj=EPSG:32633}",
  "projectName" : "im.ml.examples",
  "localName" : "ndwi_2015",
  "type" : "NUMBER",
  "resourceTimestamp" : 1555516697847,
  "metadata" : { },
  "parameters" : {
    "wcsIdentifier" : "aries__ndwi_may2015",
    "serviceUrl" : "http://150.241.222.1/geoserver/ows",
    "band" : "0",
    "wcsVersion" : "2.0.1"
  },
  "localPaths" : [ ],
  "history" : [ ],
  "notifications" : [ ],
  "attributes" : [ ],
  "spatialExtent" : {
    "east" : 16.060634737800555,
    "west" : 12.134153841319144,
    "north" : 38.51751632455615,
    "south" : 36.550322405018896,
    "gridResolution" : null,
    "gridUnit" : null
  }
}