{
  "urn" : "local:ferdinando.villa:im.ml.examples:forestry.ml.atlantic2",
  "version" : "0.0.1",
  "adapterType" : "weka",
  "localPath" : "im.ml.examples/resources/forestry.ml.atlantic2",
  "geometry" : "S2(1,1){bbox=[-7.0053052906902025 1.5228645026587184 41.23125320065404 45.041000187892735],proj=EPSG:4326}",
  "projectName" : "im.ml.examples",
  "localName" : "forestry.ml.atlantic2",
  "type" : "NUMBER",
  "resourceTimestamp" : 1556871394805,
  "metadata" : { },
  "parameters" : {
    "predictor.slope.discretizer.file" : "d_slope7932086295636525496.bin",
    "predictor.elevation.discretizer.cutpoints" : "[262.8, 525.6, 788.4000000000001, 1051.2, 1314.0, 1576.8000000000002, 1839.6000000000001, 2102.4, 2365.2000000000003]",
    "predictor.slope.discretizer.cutpoints" : "[4.249771890416741, 8.441858342289924, 12.633944794163106, 16.82603124603629, 21.018117697909474, 25.210204149782655, 29.40229060165584, 33.59437705352902, 37.7864635054022]",
    "predictor.slope.index" : "10",
    "submitNodata" : "true",
    "predictor.mean_solar_radiation.discretizer.file" : "d_mean_solar_radiation852280117820770530.bin",
    "predictor.mean_atmospheric_temperature.discretizer.options" : "-R 8 -Y",
    "predictor.elevation.range" : "[-6.0,3227.0]",
    "predictor.leaf_area_index.index" : "3",
    "predictor.elevation.index" : "9",
    "predictor.potential_evapotranspired_water_volume.discretizer" : "weka.filters.unsupervised.attribute.Discretize",
    "predictor.elevation.discretizer" : "weka.filters.unsupervised.attribute.Discretize",
    "predictor.mean_solar_radiation.discretizer.options" : "-R 6 -Y",
    "predictor.elevation.discretizer.options" : "-R 9 -Y",
    "predictor.soil_depth.discretizer" : "weka.filters.unsupervised.attribute.Discretize",
    "predictor.leaf_area_index.discretizer" : "weka.filters.unsupervised.attribute.Discretize",
    "predictor.potential_evapotranspired_water_volume.discretizer.options" : "-R 5 -Y",
    "classifier" : "weka.classifiers.bayes.BayesNet",
    "predictor.mean_atmospheric_temperature.range" : "[-1.850000023841858,15.899999618530273]",
    "model" : "ml.example.forestry.biomass-of-tree-vegetation-community-resolver",
    "predictor.slope.range" : "[-0.29563042521476746,65.63410949707031]",
    "predictor.soil_depth.range" : "[0.0,6894.0]",
    "predictor.soil_depth.discretizer.file" : "d_soil_depth8755310188507499855.bin",
    "classifier.options" : " -Q weka.classifiers.bayes.net.search.local.K2 -- -P 3 -E weka.classifiers.bayes.net.estimate.SimpleEstimator -- -A 1.0",
    "predicted.name" : "biomass_of_tree_vegetation_community",
    "predictor.enhanced_vegetation_index.range" : "[1100000.0,7.148E7]",
    "predictor.soil_texture.range" : "[3.0,8.0]",
    "predictor.mean_atmospheric_temperature.discretizer.file" : "d_mean_atmospheric_temperature1292718378214453081.bin",
    "instances.file" : "instances9187456391526557486.arff",
    "predicted.discretizer.file" : "d_biomass_of_tree_vegetation_community8896561556514020330.bin",
    "predictor.precipitation_volume_during_growing_season.discretizer" : "weka.filters.unsupervised.attribute.Discretize",
    "classifier.probabilistic" : "true",
    "predictor.enhanced_vegetation_index.discretizer.cutpoints" : "[2.2428E7, 2.7796E7, 3.3164E7, 3.8532E7, 4.39E7, 4.9268E7, 5.4636E7, 6.0004E7, 6.5372E7]",
    "predictor.slope.discretizer" : "weka.filters.unsupervised.attribute.Discretize",
    "predictor.forest_potential_wood_productivity.index" : "2",
    "predictor.enhanced_vegetation_index.index" : "4",
    "predictor.elevation.discretizer.file" : "d_elevation4770683751134560194.bin",
    "predictor.mean_atmospheric_temperature.discretizer" : "weka.filters.unsupervised.attribute.Discretize",
    "predictor.soil_depth.index" : "11",
    "predicted.range" : "[0.003446705639362335,0.8346555829048157]",
    "predictor.leaf_area_index.discretizer.cutpoints" : "[0.4262162007391453, 0.7414466679096222, 1.0566771350800992, 1.371907602250576, 1.687138069421053, 2.00236853659153, 2.3175990037620067, 2.6328294709324838, 2.948059938102961]",
    "predictor.potential_evapotranspired_water_volume.discretizer.file" : "d_potential_evapotranspired_water_volume7534649173756547044.bin",
    "predictor.mean_solar_radiation.range" : "[11909.0,15725.0]",
    "classifier.file" : "classifier5615108249758760748.bin",
    "predictor.mean_solar_radiation.index" : "6",
    "predictor.leaf_area_index.discretizer.file" : "d_leaf_area_index7253328979794906271.bin",
    "predictor.mean_solar_radiation.discretizer.cutpoints" : "[12614.9, 12951.8, 13288.7, 13625.6, 13962.5, 14299.4, 14636.3, 14973.2, 15310.1]",
    "instances.file.raw" : "rawinstances10460768337893743.arff",
    "predictor.mean_atmospheric_temperature.discretizer.cutpoints" : "[3.827500009536743, 5.121666717529297, 6.41583342552185, 7.710000133514404, 9.004166841506958, 10.29833354949951, 11.592500257492064, 12.886666965484618, 14.180833673477172]",
    "predictor.soil_depth.discretizer.cutpoints" : "[929.2, 1355.4, 1781.6, 2207.8, 2634.0, 3060.2, 3486.4, 3912.6, 4338.799999999999]",
    "predicted.index" : "1",
    "predictor.precipitation_volume_during_growing_season.discretizer.cutpoints" : "[314.1, 388.2, 462.29999999999995, 536.4, 610.5, 684.5999999999999, 758.6999999999999, 832.8, 906.9]",
    "predicted.discretizer.options" : "-R 1  -B 5 -F -Y",
    "predictor.mean_solar_radiation.discretizer" : "weka.filters.unsupervised.attribute.Discretize",
    "predictor.forest_potential_wood_productivity.range" : "[0.0,2.0]",
    "predicted.discretizer" : "weka.filters.unsupervised.attribute.Discretize",
    "predictor.enhanced_vegetation_index.discretizer" : "weka.filters.unsupervised.attribute.Discretize",
    "predictor.precipitation_volume_during_growing_season.range" : "[237.0,1136.0]",
    "predictor.potential_evapotranspired_water_volume.discretizer.cutpoints" : "[591.2, 655.4, 719.6, 783.8, 848.0, 912.2, 976.4000000000001, 1040.6, 1104.8000000000002]",
    "predictor.potential_evapotranspired_water_volume.range" : "[0.0,1176.0]",
    "predictor.leaf_area_index.discretizer.options" : "-R 3 -Y",
    "predictor.precipitation_volume_during_growing_season.discretizer.options" : "-R 7 -Y",
    "predictor.mean_atmospheric_temperature.index" : "8",
    "predictor.leaf_area_index.range" : "[0.012269891798496246,3.4328560829162598]",
    "predictor.precipitation_volume_during_growing_season.index" : "7",
    "predictor.enhanced_vegetation_index.discretizer.options" : "-R 4 -Y",
    "predictor.precipitation_volume_during_growing_season.discretizer.file" : "d_precipitation_volume_during_growing_season2742532308280159981.bin",
    "predictor.soil_depth.discretizer.options" : "-R 11 -Y",
    "predictor.potential_evapotranspired_water_volume.index" : "5",
    "predictor.soil_texture.index" : "12",
    "predictor.slope.discretizer.options" : "-R 10 -Y",
    "wekaVersion" : "3.8.3",
    "predictor.enhanced_vegetation_index.discretizer.file" : "d_enhanced_vegetation_index4767535779911707134.bin",
    "predicted.discretizer.cutpoints" : "[0.006889524636790156, 0.020771583542227745, 0.040971703827381134, 0.10308371856808662]"
  },
  "localPaths" : [ "im.ml.examples/resources/forestry.ml.atlantic2/d_biomass_of_tree_vegetation_community8896561556514020330.bin", "im.ml.examples/resources/forestry.ml.atlantic2/d_leaf_area_index7253328979794906271.bin", "im.ml.examples/resources/forestry.ml.atlantic2/d_enhanced_vegetation_index4767535779911707134.bin", "im.ml.examples/resources/forestry.ml.atlantic2/d_potential_evapotranspired_water_volume7534649173756547044.bin", "im.ml.examples/resources/forestry.ml.atlantic2/d_mean_solar_radiation852280117820770530.bin", "im.ml.examples/resources/forestry.ml.atlantic2/d_precipitation_volume_during_growing_season2742532308280159981.bin", "im.ml.examples/resources/forestry.ml.atlantic2/d_mean_atmospheric_temperature1292718378214453081.bin", "im.ml.examples/resources/forestry.ml.atlantic2/d_elevation4770683751134560194.bin", "im.ml.examples/resources/forestry.ml.atlantic2/d_slope7932086295636525496.bin", "im.ml.examples/resources/forestry.ml.atlantic2/d_soil_depth8755310188507499855.bin", "im.ml.examples/resources/forestry.ml.atlantic2/instances9187456391526557486.arff", "im.ml.examples/resources/forestry.ml.atlantic2/rawinstances10460768337893743.arff", "im.ml.examples/resources/forestry.ml.atlantic2/classifier5615108249758760748.bin" ],
  "history" : [ ],
  "notifications" : [ ],
  "attributes" : [ ],
  "spatialExtent" : null,
  "dependencies" : [ {
    "name" : "forest_potential_wood_productivity",
    "type" : "CONCEPT",
    "key" : true,
    "optional" : true,
    "exampleValue" : null
  }, {
    "name" : "leaf_area_index",
    "type" : "NUMBER",
    "key" : true,
    "optional" : true,
    "exampleValue" : null
  }, {
    "name" : "enhanced_vegetation_index",
    "type" : "NUMBER",
    "key" : true,
    "optional" : true,
    "exampleValue" : null
  }, {
    "name" : "potential_evapotranspired_water_volume",
    "type" : "NUMBER",
    "key" : true,
    "optional" : true,
    "exampleValue" : null
  }, {
    "name" : "mean_solar_radiation",
    "type" : "NUMBER",
    "key" : true,
    "optional" : true,
    "exampleValue" : null
  }, {
    "name" : "precipitation_volume_during_growing_season",
    "type" : "NUMBER",
    "key" : true,
    "optional" : true,
    "exampleValue" : null
  }, {
    "name" : "mean_atmospheric_temperature",
    "type" : "NUMBER",
    "key" : true,
    "optional" : true,
    "exampleValue" : null
  }, {
    "name" : "elevation",
    "type" : "NUMBER",
    "key" : true,
    "optional" : true,
    "exampleValue" : null
  }, {
    "name" : "slope",
    "type" : "NUMBER",
    "key" : true,
    "optional" : true,
    "exampleValue" : null
  }, {
    "name" : "soil_depth",
    "type" : "NUMBER",
    "key" : true,
    "optional" : true,
    "exampleValue" : null
  }, {
    "name" : "soil_texture",
    "type" : "CONCEPT",
    "key" : true,
    "optional" : true,
    "exampleValue" : null
  } ],
  "exportFormats" : {
    "bif" : "BIF bayesian network (.bif)",
    "xdsl" : "GENIE bayesian network (.xdsl)",
    "arff" : "Training dataset (ARFF)",
    "arff#raw" : "Raw training dataset (ARFF)",
    "model" : "WEKA Classifier (.model)",
    "model#predicted" : "WEKA discretizer for the predicted variable (.model)",
    "model#leaf_area_index" : "WEKA Discretizer for Leaf area index (.model)",
    "model#enhanced_vegetation_index" : "WEKA Discretizer for Enhanced vegetation index (.model)",
    "model#potential_evapotranspired_water_volume" : "WEKA Discretizer for Potential evapotranspired water volume (.model)",
    "model#mean_solar_radiation" : "WEKA Discretizer for Mean solar radiation (.model)",
    "model#precipitation_volume_during_growing_season" : "WEKA Discretizer for Precipitation volume during growing season (.model)",
    "model#mean_atmospheric_temperature" : "WEKA Discretizer for Mean atmospheric temperature (.model)",
    "model#elevation" : "WEKA Discretizer for Elevation (.model)",
    "model#slope" : "WEKA Discretizer for Slope (.model)",
    "model#soil_depth" : "WEKA Discretizer for Soil depth (.model)"
  }
}