{
  "urn" : "local:amarquez:im.ml.examples:aries.aspect_eu",
  "version" : "0.0.1",
  "adapterType" : "wcs",
  "localPath" : "im.ml.examples/resources/aries.aspect_eu.v0.0.1",
  "geometry" : "S2(108000,71999){bbox=[-40.000416303462956 50.00125024213378 14.999583575467113 75.00000000200002],proj=EPSG:4326}",
  "projectName" : "im.ml.examples",
  "localName" : "aries.aspect_eu",
  "type" : "NUMBER",
  "resourceTimestamp" : 1557304548242,
  "metadata" : { },
  "parameters" : {
    "wcsIdentifier" : "aries__Aspect_EU",
    "serviceUrl" : "http://150.241.222.1/geoserver/ows",
    "band" : "0",
    "wcsVersion" : "2.0.1"
  },
  "localPaths" : [ ],
  "history" : [ ],
  "notifications" : [ ],
  "attributes" : [ ],
  "spatialExtent" : {
    "east" : 50.00125024213378,
    "west" : -40.000416303462956,
    "north" : 75.00000000200002,
    "south" : 14.999583575467113,
    "gridResolution" : null,
    "gridUnit" : null
  },
  "dependencies" : null,
  "exportFormats" : { }
}