{
  "urn" : "local:amarquez:im.ml.examples:aries.wildfire_confi80_2014",
  "version" : "0.0.1",
  "adapterType" : "wcs",
  "localPath" : "im.ml.examples/resources/aries.wildfire_confi80_2014.v0.0.1",
  "geometry" : "S2(3366,3458){bbox=[-17.069875399999997 26.618296400000002 25.8279668 70.7098754],proj=EPSG:4326}",
  "projectName" : "im.ml.examples",
  "localName" : "aries.wildfire_confi80_2014",
  "type" : "NUMBER",
  "resourceTimestamp" : 1557304182473,
  "metadata" : { },
  "parameters" : {
    "wcsIdentifier" : "aries__wildfire_confi80_2014",
    "serviceUrl" : "http://150.241.222.1/geoserver/ows",
    "band" : "0",
    "nodata" : "-9999.0",
    "wcsVersion" : "2.0.1"
  },
  "localPaths" : [ ],
  "history" : [ ],
  "notifications" : [ ],
  "attributes" : [ ],
  "spatialExtent" : {
    "east" : 26.618296400000002,
    "west" : -17.069875399999997,
    "north" : 70.7098754,
    "south" : 25.8279668,
    "gridResolution" : null,
    "gridUnit" : null
  },
  "dependencies" : null,
  "exportFormats" : { }
}