{
  "urn" : "local:stefano.balbi:im.ml.examples:tree_biomass_productivity_Liang",
  "version" : "0.0.1",
  "adapterType" : "wfs",
  "localPath" : "im.ml.examples/resources/tree_biomass_productivity_Liang.v0.0.1",
  "geometry" : "#s0(773100){bbox=[-170.82 160.0 -51.98 72.5],proj=EPSG:4326}",
  "projectName" : "im.ml.examples",
  "localName" : "tree_biomass_productivity_Liang",
  "type" : "OBJECT",
  "resourceTimestamp" : 1553169363151,
  "metadata" : {
    "im:keywords" : "features,GFB1_data_full",
    "dc:title" : "GFB1_data_full"
  },
  "parameters" : {
    "computeUnion" : "false",
    "serviceUrl" : "http://150.241.222.1/geoserver/ows",
    "wfsVersion" : "1.0.0",
    "computeHull" : "false",
    "wfsIdentifier" : "aries:GFB1_data_full",
    "sanitize" : "false"
  },
  "localPaths" : [ ],
  "history" : [ ],
  "notifications" : [ ],
  "attributes" : [ {
    "name" : "FID",
    "type" : "NUMBER",
    "key" : false,
    "optional" : true,
    "exampleValue" : null
  }, {
    "name" : "Country",
    "type" : "TEXT",
    "key" : false,
    "optional" : true,
    "exampleValue" : null
  }, {
    "name" : "dataset",
    "type" : "NUMBER",
    "key" : false,
    "optional" : true,
    "exampleValue" : null
  }, {
    "name" : "PLOT",
    "type" : "NUMBER",
    "key" : false,
    "optional" : true,
    "exampleValue" : null
  }, {
    "name" : "Lon",
    "type" : "NUMBER",
    "key" : false,
    "optional" : true,
    "exampleValue" : null
  }, {
    "name" : "Lat",
    "type" : "NUMBER",
    "key" : false,
    "optional" : true,
    "exampleValue" : null
  }, {
    "name" : "G",
    "type" : "NUMBER",
    "key" : false,
    "optional" : true,
    "exampleValue" : null
  }, {
    "name" : "S",
    "type" : "NUMBER",
    "key" : false,
    "optional" : true,
    "exampleValue" : null
  }, {
    "name" : "P",
    "type" : "NUMBER",
    "key" : false,
    "optional" : true,
    "exampleValue" : null
  }, {
    "name" : "I1",
    "type" : "NUMBER",
    "key" : false,
    "optional" : true,
    "exampleValue" : null
  }, {
    "name" : "I2",
    "type" : "NUMBER",
    "key" : false,
    "optional" : true,
    "exampleValue" : null
  }, {
    "name" : "T1",
    "type" : "NUMBER",
    "key" : false,
    "optional" : true,
    "exampleValue" : null
  }, {
    "name" : "T2",
    "type" : "NUMBER",
    "key" : false,
    "optional" : true,
    "exampleValue" : null
  }, {
    "name" : "T3",
    "type" : "NUMBER",
    "key" : false,
    "optional" : true,
    "exampleValue" : null
  }, {
    "name" : "C1",
    "type" : "NUMBER",
    "key" : false,
    "optional" : true,
    "exampleValue" : null
  }, {
    "name" : "C2",
    "type" : "NUMBER",
    "key" : false,
    "optional" : true,
    "exampleValue" : null
  }, {
    "name" : "C3",
    "type" : "NUMBER",
    "key" : false,
    "optional" : true,
    "exampleValue" : null
  }, {
    "name" : "E",
    "type" : "NUMBER",
    "key" : false,
    "optional" : true,
    "exampleValue" : null
  }, {
    "name" : "PET",
    "type" : "NUMBER",
    "key" : false,
    "optional" : true,
    "exampleValue" : null
  }, {
    "name" : "IAA",
    "type" : "NUMBER",
    "key" : false,
    "optional" : true,
    "exampleValue" : null
  }, {
    "name" : "Ecoregion",
    "type" : "NUMBER",
    "key" : false,
    "optional" : true,
    "exampleValue" : null
  } ],
  "spatialExtent" : {
    "east" : 160.0,
    "west" : -170.82,
    "north" : 72.5,
    "south" : -51.98,
    "gridResolution" : null,
    "gridUnit" : null
  }
}