{
  "urn" : "local:amarquez:im.ml.examples:aries.solarRad_fireSeasonN_mean",
  "version" : "0.0.1",
  "adapterType" : "wcs",
  "localPath" : "im.ml.examples/resources/aries.solarRad_fireSeasonN_mean.v0.0.1",
  "geometry" : "S2(43199,21599){bbox=[-180.0 179.99999998559997 -89.99999999279999 90.0],proj=EPSG:4326}",
  "projectName" : "im.ml.examples",
  "localName" : "aries.solarRad_fireSeasonN_mean",
  "type" : "NUMBER",
  "resourceTimestamp" : 1557226060968,
  "metadata" : { },
  "parameters" : {
    "wcsIdentifier" : "aries__solarRad_fireSeasonN_mean",
    "serviceUrl" : "http://150.241.222.1/geoserver/ows",
    "band" : "0",
    "nodata" : "-3.402823E38",
    "wcsVersion" : "2.0.1"
  },
  "localPaths" : [ ],
  "history" : [ ],
  "notifications" : [ ],
  "attributes" : [ ],
  "spatialExtent" : {
    "east" : 179.99999998559997,
    "west" : -180.0,
    "north" : 90.0,
    "south" : -89.99999999279999,
    "gridResolution" : null,
    "gridUnit" : null
  },
  "dependencies" : null,
  "exportFormats" : { }
}